<svg xmlns="http://www.w3.org/2000/svg" xmlns:xlink="http://www.w3.org/1999/xlink" version="1.1" width="307.046" height="307.046" style="" xml:space="preserve"><rect id="backgroundrect" width="100%" height="100%" x="0" y="0" fill="none" stroke="none"/>
















<g class="currentLayer" style=""><title>Layer 1</title><g id="svg_1" class="selected" fill="#ff8a95" fill-opacity="1">
	<g id="_x34_84._Forward" fill="#ff8a95" fill-opacity="1">
		<g id="svg_2" fill="#ff8a95" fill-opacity="1">
			<path d="M239.087,142.427L101.259,4.597c-6.133-6.129-16.073-6.129-22.203,0L67.955,15.698c-6.129,6.133-6.129,16.076,0,22.201     l115.621,115.626L67.955,269.135c-6.129,6.136-6.129,16.086,0,22.209l11.101,11.101c6.13,6.136,16.07,6.136,22.203,0     l137.828-137.831C245.222,158.487,245.222,148.556,239.087,142.427z" fill="#ff8a95" id="svg_3" fill-opacity="1"/>
		</g>
	</g>
</g><g id="svg_4">
</g><g id="svg_5">
</g><g id="svg_6">
</g><g id="svg_7">
</g><g id="svg_8">
</g><g id="svg_9">
</g><g id="svg_10">
</g><g id="svg_11">
</g><g id="svg_12">
</g><g id="svg_13">
</g><g id="svg_14">
</g><g id="svg_15">
</g><g id="svg_16">
</g><g id="svg_17">
</g><g id="svg_18">
</g></g></svg>