<?xml version="1.0" encoding="utf-8"?>
<!-- Generator: Adobe Illustrator 23.0.1, SVG Export Plug-In . SVG Version: 6.00 Build 0)  -->
<svg version="1.1" id="Layer_1" xmlns="http://www.w3.org/2000/svg" xmlns:xlink="http://www.w3.org/1999/xlink" x="0px" y="0px"
	 viewBox="0 0 170.1 194.7" style="enable-background:new 0 0 170.1 194.7;" xml:space="preserve">
<style type="text/css">
	.st0{fill:none;stroke:#404040;stroke-miterlimit:10;}
	.st1{fill:#FFFFFF;stroke:#404040;stroke-miterlimit:10;}
	.st2{fill:#FEE2E3;stroke:#404040;stroke-miterlimit:10;}
	.st3{fill:#404040;}
	.st4{fill:#FFE1F4;stroke:#404040;stroke-miterlimit:10;}
	.st5{fill:#FEE2E3;stroke:#FFFFFF;stroke-width:0.5;stroke-linecap:round;stroke-miterlimit:10;}
	.st6{fill:#FFFFFF;}
	.st7{fill:none;stroke:#404040;stroke-width:0.75;stroke-miterlimit:10;}
	.st8{fill:#FEE2E3;}
</style>
<title>PickItems</title>
<path class="st0" d="M138.6,14.3l6.4,3.1l-15.3,38.1H112l-2.9-18.1C109.1,37.4,124.7,34.7,138.6,14.3z"/>
<path class="st1" d="M117.2,14.3l-6.4,3.1l15.3,38.1h17.7l2.9-18.1C146.7,37.4,131.1,34.7,117.2,14.3z"/>
<rect x="111.6" y="55.5" class="st2" width="32.3" height="6"/>
<path class="st0" d="M127.2,91.5c0.5,4.7-4.6,38.2-4.9,44.3c-0.3,7.3-1,48.1-1,48.1h-13.2c0,0-12.8-85.6,3.9-122.4"/>
<path class="st0" d="M127.2,91.5c-0.6,4.7,4.5,38.4,4.8,44.5c0.3,7.3,1.1,48.1,1.1,48.1h13.6c0,0,13.8-87.3-3-122.6"/>
<path d="M-16.5,257"/>
<circle class="st1" cx="152.7" cy="83.6" r="15.2"/>
<path class="st2" d="M161,75.9c-4.5-3.1-7.5,1-8.3,2.3c-0.8-1.2-3.8-5.4-8.3-2.3c-7.9,7.3,8.2,18.6,8.3,18.6
	C152.8,94.5,168.5,82.1,161,75.9z"/>
<path class="st2" d="M59.6,47.3l-1,1.4c0,0-2.5-1.9-6.6,0l-0.3-2c0,0,3-1.8,7.9,0"/>
<path class="st2" d="M95.5,43.3v3.4c0,0-1.6-0.1-1.9,1c-0.4,1.1-5.2,18.4-17.2,18.4C63.3,66.3,56.9,53,57.8,47.3
	c1-5.7,11.2-7,18.8-7s14.9,2.4,15.7,2.5C93.2,43,95.5,43.3,95.5,43.3z"/>
<path class="st3" d="M90.5,46.4c-0.1-0.8-0.5-1.4-1.2-1.8c-1.8-0.9-6.2-2.6-14.7-2.5c-12.5,0.2-15.1,4.6-14.3,8.1
	c0.8,3.5,4.9,13.8,15,13.5C84.8,63.6,91.2,53.6,90.5,46.4z"/>
<path class="st2" d="M14.8,42.4v3.4c0,0,1.6-0.1,1.9,1c0.4,1.1,5.2,18.4,17.2,18.4C47,65.4,53.4,52,52.4,46.4s-11.2-7-18.8-7
	s-14.9,2.4-15.7,2.5C17.1,42,14.8,42.4,14.8,42.4z"/>
<path class="st3" d="M19.8,45.5c0.1-0.8,0.5-1.4,1.2-1.8c1.8-0.9,6.2-2.6,14.7-2.5c12.5,0.2,15.1,4.6,14.3,8.1
	c-0.8,3.5-4.9,13.8-15,13.5C25.5,62.7,19.1,52.6,19.8,45.5z"/>
<circle class="st1" cx="21.3" cy="27.8" r="15.2"/>
<path class="st2" d="M29.7,20.1c-4.5-3.1-7.5,1-8.3,2.3c-0.8-1.2-3.8-5.4-8.3-2.3c-7.9,7.3,8.2,18.6,8.3,18.6
	C21.5,38.7,37.2,26.2,29.7,20.1z"/>
<path class="st0" d="M63.8,85.8c0,0-6.2-1.5-21.9,0c0,0-4.4-2.6,0.6-6.7c4.9-3.9,16.7-2.8,19.5,0.2C63.7,81.1,63.8,85.8,63.8,85.8z"
	/>
<polygon class="st1" points="60.4,92.8 52,110.4 49.8,121.7 58.3,122.2 74.3,112.6 66.2,98.9 76.7,96.6 70.5,84.8 60.4,78.3 "/>
<path class="st1" d="M33.7,85.5c0,0-10.9,5-11.5,7c0,0,4.9,20.8,5.1,27.6c0.2,6.8,0.6,40.5,0.6,40.5c10.8,8.3,32.6,4.5,32.6,4.5
	l2.6-35l-10.7-21.6l-8-16.1L44.1,92l-0.3-0.7v-5.6v-7.5l-9.5,6.1L28.4,96l10.7,2.3l-7.6,13.8l30.9,16.8"/>
<path class="st0" d="M60.4,165.2c15.9-0.7,16.3-5.8,16.3-5.8l1.1-37.2l5.3-30c0,0-6.8-5.9-12.6-7.6"/>
<path class="st0" d="M83,92.2c0,0,11.8,38.8,10.3,87.2c0,0-9.9,0.4-11.1,0l-4.5-57.2"/>
<path class="st0" d="M22,92.2c0,0-11.8,38.8-10.3,87.2c0,0,9.9,0.4,11.1,0l4.5-57.2"/>
<circle class="st4" cx="38" cy="111.1" r="1.4"/>
<circle class="st4" cx="67.9" cy="111.2" r="1.4"/>
<path class="st0" d="M27.7,153.1c10.3,5.3,30,10.9,49-1.3"/>
<circle class="st1" cx="66.5" cy="169.6" r="15.2"/>
<path class="st2" d="M74.8,161.9c-4.5-3.1-7.5,1-8.3,2.3c-0.8-1.2-3.8-5.4-8.3-2.3c-7.9,7.3,8.2,18.6,8.3,18.6
	C66.6,180.5,82.3,168,74.8,161.9z"/>
<line class="st5" x1="82" y1="48.8" x2="78.5" y2="55.5"/>
<line class="st5" x1="85.3" y1="48.4" x2="80.4" y2="57.6"/>
<g>
	<path class="st6" d="M70.7,26.3c-0.8-1.4-2.1-3.2-3.1-4.2c1-1,2.3-2.8,3.1-4.2c0.7,1.4,2.1,3.2,3.1,4.2
		C72.8,23.1,71.5,24.8,70.7,26.3z"/>
	<path class="st7" d="M70.7,26.3c-0.8-1.4-2.1-3.2-3.1-4.2c1-1,2.3-2.8,3.1-4.2c0.7,1.4,2.1,3.2,3.1,4.2
		C72.8,23.1,71.5,24.8,70.7,26.3z"/>
</g>
<rect x="60.7" y="27.7" transform="matrix(0.6801 0.7331 -0.7331 0.6801 41.5581 -36.3696)" class="st8" width="3.5" height="3.5"/>
<g>
	<path class="st6" d="M11,103.1c-0.8-1.4-2.1-3.2-3.1-4.2c1-1,2.3-2.8,3.1-4.2c0.7,1.4,2.1,3.2,3.1,4.2C13,99.9,11.7,101.7,11,103.1
		z"/>
	<path class="st7" d="M11,103.1c-0.8-1.4-2.1-3.2-3.1-4.2c1-1,2.3-2.8,3.1-4.2c0.7,1.4,2.1,3.2,3.1,4.2C13,99.9,11.7,101.7,11,103.1
		z"/>
</g>
<rect x="91.5" y="80.4" transform="matrix(0.6801 0.7331 -0.7331 0.6801 90.0989 -42.0528)" class="st8" width="3.5" height="3.5"/>
<g>
	<path class="st6" d="M157.4,179c-0.8-1.4-2.1-3.2-3.1-4.2c1-1,2.3-2.8,3.1-4.2c0.7,1.4,2.1,3.2,3.1,4.2
		C159.4,175.8,158.1,177.5,157.4,179z"/>
	<path class="st7" d="M157.4,179c-0.8-1.4-2.1-3.2-3.1-4.2c1-1,2.3-2.8,3.1-4.2c0.7,1.4,2.1,3.2,3.1,4.2
		C159.4,175.8,158.1,177.5,157.4,179z"/>
</g>
<rect x="158.8" y="157.3" transform="matrix(0.6801 0.7331 -0.7331 0.6801 167.9608 -66.8194)" class="st8" width="3.5" height="3.5"/>
<rect x="14.4" y="85.3" transform="matrix(0.6801 0.7331 -0.7331 0.6801 69.0295 16.009)" class="st8" width="3.5" height="3.5"/>
</svg>
